R for Reproducible Scientific Analysis
…
## filter(): dplyr, stats
## lag():    dplyr, stats

If above code produces an error there is no package called tidyverse, uncomment (remove #) the line above and run install.packages()command before you load the library. You only need to install the package once, but you will have to reload it, using the library() command, every time you restart R.

Today we will be working with the gapminder dataset, which is the excerpt from the GAPMINDER data. First lets install and load the package containing the extracted data.

#install.packages("gapminder")
library("gapminder")

You can have a look at the content of the gapminder data frame by simply typing gapminder either in the R-chunk or in the console. Data frame is a rectangular collection of data, where variables are organized as columns and observations are listed as rows.

gapminder

## # A tibble: 1,704 x 6
##        country continent  year lifeExp      pop gdpPercap
##         <fctr>    <fctr> <int>   <dbl>    <int>     <dbl>
## 1  Afghanistan      Asia  1952  28.801  8425333  779.4453
## 2  Afghanistan      Asia  1957  30.332  9240934  820.8530
## 3  Afghanistan      Asia  1962  31.997 10267083  853.1007
## 4  Afghanistan      Asia  1967  34.020 11537966  836.1971
## 5  Afghanistan      Asia  1972  36.088 13079460  739.9811
## 6  Afghanistan      Asia  1977  38.438 14880372  786.1134
## 7  Afghanistan      Asia  1982  39.854 12881816  978.0114
## 8  Afghanistan      Asia  1987  40.822 13867957  852.3959
## 9  Afghanistan      Asia  1992  41.674 16317921  649.3414
## 10 Afghanistan      Asia  1997  41.763 22227415  635.3414
## # ... with 1,694 more rows
…
The facet_wrap() layer takes a formula as its argument, denoted by the tilde (~). This tells R to draw a panel for each unique value in the continent column of the gapminder dataset. Faceting is useful when number of panels is limited. Notice that here R places panels from left to right, wrapping those panels that do not fit in one row onto the new line. Learn about advanced faceting, including faceting over several variables using help on ?facet_grid().

Reiterating our previously proposed ggplot2 template and adding what we learned until, now we can state:

`ggplot(data = <DATA>) + 
  <GEOM_FUNCTION>(mapping = aes(<MAPPINGS>)) + 
  <FACET_FUNCTION>`

Statistical transformations

How many countries are there in gapminder dataset on each continent? It is to common to aswer this sort of question with a bar chart. This dataset contains observations from several years, but since we are no longer interested in showing the dynamics, perhaps it is good idea to take a snapshot of the data, by limiting it to observations from one year, say year 2007. In tidyverse terminology we will filter the data to contain only observations from 2007. We will learn about filtering later in this workshop. The simplest way of achieving it is to wrap the data and the condition we want to apply into the filter() function.

filter(gapminder, year==2007)

## # A tibble: 142 x 6
##        country continent  year lifeExp       pop  gdpPercap
##         <fctr>    <fctr> <int>   <dbl>     <int>      <dbl>
## 1  Afghanistan      Asia  2007  43.828  31889923   974.5803
## 2      Albania    Europe  2007  76.423   3600523  5937.0295
## 3      Algeria    Africa  2007  72.301  33333216  6223.3675
## 4       Angola    Africa  2007  42.731  12420476  4797.2313
## 5    Argentina  Americas  2007  75.320  40301927 12779.3796
## 6    Australia   Oceania  2007  81.235  20434176 34435.3674
## 7      Austria    Europe  2007  79.829   8199783 36126.4927
## 8      Bahrain      Asia  2007  75.635    708573 29796.0483
## 9   Bangladesh      Asia  2007  64.062 150448339  1391.2538
## 10     Belgium    Europe  2007  79.441  10392226 33692.6051
## # ... with 132 more rows
…
