Final Project
…
## # A tibble: 6 x 1
##            country
##              <chr>
## 1 Congo, Dem. Rep.
## 2            Egypt
## 3         Ethiopia
## 4          Nigeria
## 5     South Africa
## 6            Sudan

We also need the full dataset and produce new variables that you can see on panels

gapminder_plus %>% mutate(pop_mln=pop/10^6, gdp_mln=gdpPercap*pop/10^6)

## # A tibble: 1,704 x 10
##        country  year infantMort  fert continent lifeExp      pop gdpPercap
##          <chr> <dbl>      <dbl> <dbl>     <chr>   <dbl>    <int>     <dbl>
##  1 Afghanistan  1952         NA  7.67      Asia  28.801  8425333  779.4453
##  2 Afghanistan  1957         NA  7.67      Asia  30.332  9240934  820.8530
##  3 Afghanistan  1962      236.3  7.67      Asia  31.997 10267083  853.1007
##  4 Afghanistan  1967      217.0  7.67      Asia  34.020 11537966  836.1971
##  5 Afghanistan  1972      198.2  7.67      Asia  36.088 13079460  739.9811
##  6 Afghanistan  1977      178.7  7.67      Asia  38.438 14880372  786.1134
##  7 Afghanistan  1982      157.5  7.67      Asia  39.854 12881816  978.0114
##  8 Afghanistan  1987      135.7  7.68      Asia  40.822 13867957  852.3959
##  9 Afghanistan  1992      114.4  7.73      Asia  41.674 16317921  649.3414
## 10 Afghanistan  1997      100.7  7.87      Asia  41.763 22227415  635.3414
## # ... with 1,694 more rows, and 2 more variables: pop_mln <dbl>,
## #   gdp_mln <dbl>

We need these two datasets joined, or rather limit the full dataset to include only those countries in the first subset

gapminder_plus %>% filter(continent=="Africa", year==2007, infantMort/1000*pop/10^6>2) %>% select(country) %>% 
  left_join(gapminder_plus) %>% mutate(pop_mln=pop/10^6, gdp_mln=gdpPercap*pop/10^6) %>% select(-c(pop,continent)) 

## Joining, by = "country"

## # A tibble: 72 x 8
##             country  year infantMort  fert lifeExp gdpPercap  pop_mln
##               <chr> <dbl>      <dbl> <dbl>   <dbl>     <dbl>    <dbl>
##  1 Congo, Dem. Rep.  1952         NA  5.98  39.143  780.5423 14.10000
##  2 Congo, Dem. Rep.  1957         NA  5.98  40.652  905.8602 15.57793
##  3 Congo, Dem. Rep.  1962         NA  6.03  42.122  896.3146 17.48643
##  4 Congo, Dem. Rep.  1967         NA  6.14  44.056  861.5932 19.94107
##  5 Congo, Dem. Rep.  1972      145.9  6.27  45.989  904.8961 23.00767
##  6 Congo, Dem. Rep.  1977      137.1  6.44  47.804  795.7573 26.48087
##  7 Congo, Dem. Rep.  1982      129.0  6.69  47.784  673.7478 30.64650
##  8 Congo, Dem. Rep.  1987      122.9  6.96  47.412  672.7748 35.48165
##  9 Congo, Dem. Rep.  1992      117.7  7.22  45.548  457.7192 41.67214
## 10 Congo, Dem. Rep.  1997      112.5  7.23  42.587  312.1884 47.79899
## # ... with 62 more rows, and 1 more variables: gdp_mln <dbl>

Now, you observe that faceting is slightly unusual - it is faceted by variable. So you want variables be in a column. What can we do? yes, gather

gapminder_plus %>% filter(continent=="Africa", year==2007, infantMort/1000*pop/10^6>2) %>% select(country) %>% 
  left_join(gapminder_plus) %>% mutate(pop_mln=pop/10^6, gdp_mln=gdpPercap*pop/10^6) %>% select(-c(pop,continent)) %>% 
  gather(key=att, value=val, -c(year,country))

## Joining, by = "country"

## # A tibble: 432 x 4
##             country  year        att   val
##               <chr> <dbl>      <chr> <dbl>
##  1 Congo, Dem. Rep.  1952 infantMort    NA
##  2 Congo, Dem. Rep.  1957 infantMort    NA
##  3 Congo, Dem. Rep.  1962 infantMort    NA
##  4 Congo, Dem. Rep.  1967 infantMort    NA
##  5 Congo, Dem. Rep.  1972 infantMort 145.9
##  6 Congo, Dem. Rep.  1977 infantMort 137.1
##  7 Congo, Dem. Rep.  1982 infantMort 129.0
##  8 Congo, Dem. Rep.  1987 infantMort 122.9
##  9 Congo, Dem. Rep.  1992 infantMort 117.7
## 10 Congo, Dem. Rep.  1997 infantMort 112.5
## # ... with 422 more rows
…
