R for Reproducible Scientific Analysis
…
gapminder %>% 
  group_by(continent)

## Source: local data frame [1,704 x 6]
## Groups: continent [5]
## 
##        country  year      pop continent lifeExp gdpPercap
##          <chr> <int>    <dbl>     <chr>   <dbl>     <dbl>
## 1  Afghanistan  1952  8425333      Asia  28.801  779.4453
## 2  Afghanistan  1957  9240934      Asia  30.332  820.8530
## 3  Afghanistan  1962 10267083      Asia  31.997  853.1007
## 4  Afghanistan  1967 11537966      Asia  34.020  836.1971
## 5  Afghanistan  1972 13079460      Asia  36.088  739.9811
## 6  Afghanistan  1977 14880372      Asia  38.438  786.1134
## 7  Afghanistan  1982 12881816      Asia  39.854  978.0114
## 8  Afghanistan  1987 13867957      Asia  40.822  852.3959
## 9  Afghanistan  1992 16317921      Asia  41.674  649.3414
## 10 Afghanistan  1997 22227415      Asia  41.763  635.3414
## # ... with 1,694 more rows
…
## # A tibble: 2  2
##       country mean_lifeExp
##         <chr>        <dbl>
## 1 Afghanistan     37.47883
## 2       Japan     74.82692

The function group_by() allows us to group by multiple variables. Lets group by year and continent.

gapminder %>% 
  group_by(continent, year) %>%
  summarize(mean_gdpPercap = mean(gdpPercap))

## Source: local data frame [60 x 3]
## Groups: continent [?]
## 
##    continent  year mean_gdpPercap
##        <chr> <int>          <dbl>
## 1     Africa  1952       1252.572
## 2     Africa  1957       1385.236
## 3     Africa  1962       1598.079
## 4     Africa  1967       2050.364
## 5     Africa  1972       2339.616
## 6     Africa  1977       2585.939
## 7     Africa  1982       2481.593
## 8     Africa  1987       2282.669
## 9     Africa  1992       2281.810
## 10    Africa  1997       2378.760
## # ... with 50 more rows

That is already quite powerful, but it gets even better! Youre not limited to defining one new variable in summarize().

gapminder %>% 
  group_by(continent, year) %>%
  summarize(mean_gdpPercap = mean(gdpPercap),
            sd_gdpPercap = sd(gdpPercap),
            mean_pop = mean(pop),
            sd_pop = sd(pop))

## Source: local data frame [60 x 6]
## Groups: continent [?]
## 
##    continent  year mean_gdpPercap sd_gdpPercap mean_pop   sd_pop
##        <chr> <int>          <dbl>        <dbl>    <dbl>    <dbl>
## 1     Africa  1952       1252.572     982.9521  4570010  6317450
## 2     Africa  1957       1385.236    1134.5089  5093033  7076042
## 3     Africa  1962       1598.079    1461.8392  5702247  7957545
## 4     Africa  1967       2050.364    2847.7176  6447875  8985505
## 5     Africa  1972       2339.616    3286.8539  7305376 10130833
## 6     Africa  1977       2585.939    4142.3987  8328097 11585184
## 7     Africa  1982       2481.593    3242.6328  9602857 13456243
## 8     Africa  1987       2282.669    2566.5319 11054502 15277484
## 9     Africa  1992       2281.810    2644.0756 12674645 17562719
## 10    Africa  1997       2378.760    2820.7281 14304480 19873013
## # ... with 50 more rows
…
gapminder %>% 
  mutate(gdp_billion = gdpPercap * pop / 10^9) %>%
  group_by(continent, year) %>%
  summarize(mean_gdpPercap = mean(gdpPercap),
            sd_gdpPercap = sd(gdpPercap),
            mean_pop = mean(pop),
            sd_pop = sd(pop),
            mean_gdp_billion = mean(gdp_billion),
            sd_gdp_billion = sd(gdp_billion))

## Source: local data frame [60 x 8]
## Groups: continent [?]
## 
##    continent  year mean_gdpPercap sd_gdpPercap mean_pop   sd_pop
##        <chr> <int>          <dbl>        <dbl>    <dbl>    <dbl>
## 1     Africa  1952       1252.572     982.9521  4570010  6317450
## 2     Africa  1957       1385.236    1134.5089  5093033  7076042
## 3     Africa  1962       1598.079    1461.8392  5702247  7957545
## 4     Africa  1967       2050.364    2847.7176  6447875  8985505
## 5     Africa  1972       2339.616    3286.8539  7305376 10130833
## 6     Africa  1977       2585.939    4142.3987  8328097 11585184
## 7     Africa  1982       2481.593    3242.6328  9602857 13456243
## 8     Africa  1987       2282.669    2566.5319 11054502 15277484
## 9     Africa  1992       2281.810    2644.0756 12674645 17562719
## 10    Africa  1997       2378.760    2820.7281 14304480 19873013
## # ... with 50 more rows, and 2 more variables: mean_gdp_billion <dbl>,
## #   sd_gdp_billion <dbl>
…
